How to choose a random number from 1 to 10
…
  Linear function to maximize 

  Problem limitations of the following form 

  Non-negative variables 

  Similarly, the problem of redistribution can be formulated. 

  Problem presentation 

  We have a set of variables. <span class="MathJax_SVG" id="MathJax-Element-1-Frame" tabindex="0" style="font-size: 100%; display: inline-block; position: relative;" data-mathml="(xi,j" role="presentation">(xi,j  each of which encodes a probability fraction redistributed from an integer <span class="MathJax_SVG" id="MathJax-Element-2-Frame" tabindex="0" style="font-size: 100%; display: inline-block; position: relative;" data-mathml="i" role="presentation">i  (from 1 to 10) to integer <span class="MathJax_SVG" id="MathJax-Element-3-Frame" tabindex="0" style="font-size: 100%; display: inline-block; position: relative;" data-mathml="j" role="presentation">j  (from 1 to 10).  Therefore, if <span class="MathJax_SVG" id="MathJax-Element-4-Frame" tabindex="0" style="font-size: 100%; display: inline-block; position: relative;" data-mathml="(x7.1=0.2" role="presentation">(x7.1=0.2  then we need to transfer 20% of the answers from the seven to the unit. 

 variables <- crossing(from = probabilities$outcome, to = probabilities$outcome) %>% mutate(name = glue::glue("x({from},{to})"), ix = row_number()) variables 

  ## # A tibble: 100 x 4
 ## from to name ix
 ## <dbl> <dbl> <glue> <int>
 ## 1 1 1 x (1,1) 1
 ## 2 1 2 x (1,2) 2
 ## 3 1 3 x (1,3) 3
 ## 4 1 4 x (1,4) 4
 ## 5 1 5 x (1,5) 5
 ## 6 1 6 x (1,6) 6
 ## 7 1 7 x (1.7) 7
 ## 8 1 8 x (1,8) 8
 ## 9 1 9 x (1.9) 9
 ## 10 1 10 x (1,10) 10
 ## #… with 90 more rows 
…
